Verification/FIFO_VER_1/transcript
# vsim -c fifo_testbench -do "vcd file wave.vcd; vcd add -r /*; run -all; quit" 
# Start time: 13:59:40 on May 30,2026
# ** Note: (vsim-3813) Design is being optimized due to module recompilation...
# //  Questa Sim-64
# //  Version 10.7c win64 Aug 18 2018
# //
# //  Copyright 1991-2018 Mentor Graphics Corporation
# //  All Rights Reserved.
# //
# //  QuestaSim and its associated documentation contain trade
# //  secrets and commercial or financial information that are the property of
# //  Mentor Graphics Corporation and are privileged, confidential,
# //  and exempt from disclosure under the Freedom of Information Act,
# //  5 U.S.C. Section 552. Furthermore, this information
# //  is prohibited from disclosure under the Trade Secrets Act,
# //  18 U.S.C. Section 1905.
# //
# Loading sv_std.std
# Loading work.fifo_testbench_sv_unit(fast)
# Loading work.fifo_testbench(fast)
# Loading work.fifo_if(fast)
# vcd file wave.vcd
#  vcd add -r /*
#  run -all
# Generated transaction: data = 00110100, wr_en = 1, rd_en = 1
# Generated transaction: data = 10100001, wr_en = 1, rd_en = 1
# Generated transaction: data = 10111111, wr_en = 0, rd_en = 1
# Generated transaction: data = 11010111, wr_en = 0, rd_en = 1
# Generated transaction: data = 10111000, wr_en = 0, rd_en = 1
# Generated transaction: data = 10001100, wr_en = 1, rd_en = 0
# Generated transaction: data = 10110001, wr_en = 1, rd_en = 0
# Generated transaction: data = 00111110, wr_en = 0, rd_en = 0
# Generated transaction: data = 10100001, wr_en = 1, rd_en = 0
# Generated transaction: data = 00111101, wr_en = 0, rd_en = 1
# Received transaction: data = 00110100, wr_en = 1, rd_en = 1
# Monitor: Captured transaction - Data: 34, Data_Out: 0, WR_EN: 1, RD_EN: 1, FULL: 0, EMPTY: 1
# Coverage: 50.00 %
# Stored
# Monitor: Captured transaction - Data: 34, Data_Out: 0, WR_EN: 0, RD_EN: 0, FULL: 0, EMPTY: 1
# Coverage: 75.00 %
# Received transaction: data = 10100001, wr_en = 1, rd_en = 1
# Monitor: Captured transaction - Data: a1, Data_Out: 0, WR_EN: 1, RD_EN: 1, FULL: 0, EMPTY: 1
# Coverage: 75.00 %
# Stored
# Monitor: Captured transaction - Data: a1, Data_Out: 0, WR_EN: 0, RD_EN: 0, FULL: 0, EMPTY: 0
# Coverage: 87.50 %
# Received transaction: data = 10111111, wr_en = 0, rd_en = 1
# Monitor: Captured transaction - Data: bf, Data_Out: 0, WR_EN: 0, RD_EN: 1, FULL: 0, EMPTY: 0
# Coverage: 87.50 %
# Popped
# Scoreboard: Received transaction - Data: bf
# ** Error: Scoreboard mismatch! Expected: Data=34 | Actual: Data=0
#    Time: 45002 ps  Scope: fifo_testbench_sv_unit.scoreboard.scoreboard__1.run File: scoreboard.sv Line: 41
# Monitor: Captured transaction - Data: bf, Data_Out: a1, WR_EN: 0, RD_EN: 0, FULL: 0, EMPTY: 1
# Coverage: 87.50 %
# Received transaction: data = 11010111, wr_en = 0, rd_en = 1
# Monitor: Captured transaction - Data: d7, Data_Out: a1, WR_EN: 0, RD_EN: 1, FULL: 0, EMPTY: 1
# Coverage: 87.50 %
# Monitor: Captured transaction - Data: d7, Data_Out: a1, WR_EN: 0, RD_EN: 0, FULL: 0, EMPTY: 1
# Coverage: 87.50 %
# Received transaction: data = 10111000, wr_en = 0, rd_en = 1
# Monitor: Captured transaction - Data: b8, Data_Out: a1, WR_EN: 0, RD_EN: 1, FULL: 0, EMPTY: 1
# Coverage: 87.50 %
# Monitor: Captured transaction - Data: b8, Data_Out: a1, WR_EN: 0, RD_EN: 0, FULL: 0, EMPTY: 1
# Coverage: 87.50 %
# Received transaction: data = 10001100, wr_en = 1, rd_en = 0
# Monitor: Captured transaction - Data: 8c, Data_Out: a1, WR_EN: 1, RD_EN: 0, FULL: 0, EMPTY: 1
# Coverage: 87.50 %
# Stored
# Monitor: Captured transaction - Data: 8c, Data_Out: a1, WR_EN: 0, RD_EN: 0, FULL: 0, EMPTY: 0
# Coverage: 87.50 %
# Received transaction: data = 10110001, wr_en = 1, rd_en = 0
# Monitor: Captured transaction - Data: b1, Data_Out: a1, WR_EN: 1, RD_EN: 0, FULL: 0, EMPTY: 0
# Coverage: 87.50 %
# Stored
# Monitor: Captured transaction - Data: b1, Data_Out: a1, WR_EN: 0, RD_EN: 0, FULL: 0, EMPTY: 0
# Coverage: 87.50 %
# Received transaction: data = 00111110, wr_en = 0, rd_en = 0
# Monitor: Captured transaction - Data: 3e, Data_Out: a1, WR_EN: 0, RD_EN: 0, FULL: 0, EMPTY: 0
# Coverage: 87.50 %
# Monitor: Captured transaction - Data: 3e, Data_Out: a1, WR_EN: 0, RD_EN: 0, FULL: 0, EMPTY: 0
# Coverage: 87.50 %
# Received transaction: data = 10100001, wr_en = 1, rd_en = 0
# Monitor: Captured transaction - Data: a1, Data_Out: a1, WR_EN: 1, RD_EN: 0, FULL: 0, EMPTY: 0
# Coverage: 87.50 %
# Stored
# Monitor: Captured transaction - Data: a1, Data_Out: a1, WR_EN: 0, RD_EN: 0, FULL: 0, EMPTY: 0
# Coverage: 87.50 %
# Received transaction: data = 00111101, wr_en = 0, rd_en = 1
# Monitor: Captured transaction - Data: 3d, Data_Out: a1, WR_EN: 0, RD_EN: 1, FULL: 0, EMPTY: 0
# Coverage: 87.50 %
# Popped
# Scoreboard: Received transaction - Data: 3d
# Scoreboard match! Transaction is correct.
# Monitor: Captured transaction - Data: 3d, Data_Out: 8c, WR_EN: 0, RD_EN: 0, FULL: 0, EMPTY: 0
# Coverage: 87.50 %
# Testbench completed.
# ** Note: $finish    : ./fifo_testbench.sv(74)
#    Time: 200 ns  Iteration: 0  Instance: /fifo_testbench
# End time: 13:59:42 on May 30,2026, Elapsed time: 0:00:02
# Errors: 1, Warnings: 0
