Verification/FIFO_VER_1/wave.vcd
$date
	Sat May 30 13:59:42 2026
$end
$version
	QuestaSim Version 10.7c
$end
$timescale
	1ps
$end

$scope module fifo_testbench $end

$scope module vif $end
$var parameter 32 ! DATA_WIDTH $end
$var parameter 32 " FIFO_DEPTH $end
$var reg 1 # clk $end
$var reg 1 $ rst $end
$var reg 1 % wr_en $end
$var reg 1 & rd_en $end
$var reg 8 ' data_in [7:0] $end
$var reg 8 ( data_out [7:0] $end
$var reg 1 ) full $end
$var reg 1 * empty $end
$upscope $end
$upscope $end
$enddefinitions $end
#0
$dumpvars
0#
1$
x%
x&
bx '
bx (
0)
1*
b1000 !
b10000 "
$end
#5000
1#
1%
1&
b110100 '
#10000
0#
#15000
1#
0%
0&
#20000
0$
0#
#25000
1#
1%
1&
b10100001 '
#30000
0#
#35000
1#
0%
0&
0*
#40000
0#
#45000
1#
1&
b10111111 '
#50000
0#
#55000
1#
0&
b10100001 (
1*
#60000
0#
#65000
1#
1&
b11010111 '
#70000
0#
#75000
1#
0&
#80000
0#
#85000
1#
1&
b10111000 '
#90000
0#
#95000
1#
0&
#100000
0#
#105000
1#
1%
b10001100 '
#110000
0#
#115000
1#
0%
0*
#120000
0#
#125000
1#
1%
b10110001 '
#130000
0#
#135000
1#
0%
#140000
0#
#145000
1#
b111110 '
#150000
0#
#155000
1#
#160000
0#
#165000
1#
1%
b10100001 '
#170000
0#
#175000
1#
0%
#180000
0#
#185000
1#
1&
b111101 '
#190000
0#
#195000
1#
0&
b10001100 (
